<svg id="logotype" class="logotype" data-name="logotype" xmlns="http://www.w3.org/2000/svg" viewBox="0 0 200 200">

  <title>logotype</title>

  <circle class="sphere" cx="100" cy="100" r="100"/>
  <path class="sphere__part" d="M126.14,11.47a57,57,0,0,0-6.78-1.63,5.76,5.76,0,0,0-1.86.25,7.52,7.52,0,0,0,.7,1.75c4.31,5.92,8.81,11.7,12.9,17.76,1.69,2.49,3.45,3.57,6.45,3.51,12-.25,26.72,9.88,30.68,24.5,3.39,12.5-1.71,23.74-13.06,28.44-4.45,1.84-4.53,1.84-4.36,6.75a135.44,135.44,0,0,1-4.54,41A132.53,132.53,0,0,1,119,185.45a18.46,18.46,0,0,0-1.52,2.46c1.06.12,2.12.28,3.18.33a5.39,5.39,0,0,0,1.46-.32c42.61-10.79,69.78-49,69.43-88.69-.17-3.66,0-7.37-.57-11C184.76,49.68,163.25,24,126.14,11.47ZM143.89,42.4c1.57-1.36.76-2.29-.93-2.93-11.27-4.27-23.92,1.77-24.14,16.16-.05,11.09,8.77,22.25,20.35,25.64a27.85,27.85,0,0,0,5.38,1c.86.08,3-.09.26-3.3A46,46,0,0,1,140.18,72c-1.6-3-3.71-6.71-3.78-11.71a24.48,24.48,0,0,1,2.14-10.78A20.06,20.06,0,0,1,143.89,42.4Z"/>
</svg>
